module github.com/GwynethLlewelyn/goswi

go 1.23.0

toolchain go1.23.5

require (
	github.com/dustin/go-humanize v1.0.1
	github.com/gabriel-vasile/mimetype v1.4.8
	github.com/gin-contrib/location v1.0.2
	github.com/gin-contrib/sessions v1.0.2
	github.com/gin-gonic/gin v1.10.0
	github.com/go-sql-driver/mysql v1.9.0
	github.com/google/uuid v1.6.0
	github.com/microcosm-cc/bluemonday v1.0.27
	github.com/newrelic/go-agent/v3 v3.36.0
	github.com/newrelic/go-agent/v3/integrations/nrgin v1.3.3
	github.com/peterbourgon/diskv/v3 v3.0.1
	github.com/philippgille/gokv v0.7.0
	github.com/philippgille/gokv/syncmap v0.7.0
	github.com/vharitonsky/iniflags v0.0.0-20180513140207-a33cd0b5f3de
	gopkg.in/gographics/imagick.v3 v3.7.2
	strk.kbt.io/projects/go/libravatar v0.0.0-20191008002943-06d1c002b251
)

require (
	filippo.io/edwards25519 v1.1.0 // indirect
	github.com/aymerick/douceur v0.2.0 // indirect
	github.com/bytedance/sonic v1.12.9 // indirect
	github.com/bytedance/sonic/loader v0.2.3 // indirect
	github.com/cloudwego/base64x v0.1.5 // indirect
	github.com/cloudwego/iasm v0.2.0 // indirect
	github.com/gin-contrib/sse v1.0.0 // indirect
	github.com/go-playground/locales v0.14.1 // indirect
	github.com/go-playground/universal-translator v0.18.1 // indirect
	github.com/go-playground/validator/v10 v10.25.0 // indirect
	github.com/goccy/go-json v0.10.5 // indirect
	github.com/google/btree v1.1.3 // indirect
	github.com/gorilla/context v1.1.2 // indirect
	github.com/gorilla/css v1.0.1 // indirect
	github.com/gorilla/securecookie v1.1.2 // indirect
	github.com/gorilla/sessions v1.4.0 // indirect
	github.com/json-iterator/go v1.1.12 // indirect
	github.com/klauspost/cpuid/v2 v2.2.9 // indirect
	github.com/leodido/go-urn v1.4.0 // indirect
	github.com/mattn/go-isatty v0.0.20 // indirect
	github.com/modern-go/concurrent v0.0.0-20180306012644-bacd9c7ef1dd // indirect
	github.com/modern-go/reflect2 v1.0.2 // indirect
	github.com/pelletier/go-toml/v2 v2.2.3 // indirect
	github.com/philippgille/gokv/encoding v0.7.0 // indirect
	github.com/philippgille/gokv/util v0.7.0 // indirect
	github.com/quasoft/memstore v0.0.0-20191010062613-2bce066d2b0b // indirect
	github.com/twitchyliquid64/golang-asm v0.15.1 // indirect
	github.com/ugorji/go/codec v1.2.12 // indirect
	golang.org/x/arch v0.14.0 // indirect
	golang.org/x/crypto v0.34.0 // indirect
	golang.org/x/net v0.35.0 // indirect
	golang.org/x/sys v0.30.0 // indirect
	golang.org/x/text v0.22.0 // indirect
	google.golang.org/genproto/googleapis/rpc v0.0.0-20250219182151-9fdb1cabc7b2 // indirect
	google.golang.org/grpc v1.70.0 // indirect
	google.golang.org/protobuf v1.36.5 // indirect
	gopkg.in/yaml.v3 v3.0.1 // indirect
)
